2018/06/15 * transfer
    ; timestamp: 1529103662
    statiamarieshillingford:Assets   -1.34 GULD
    statiamarieshillingford:Expenses   1.34 GULD
    09gregco:Assets   1.34 GULD
    09gregco:Income   -1.34 GULD
