2018/04/12 * register individual
    ; timestamp: 1523553165
    ngc224:Assets   -0.1 GULD
    ngc224:Expenses:guld:register   0.1 GULD
    guld:Liabilities   0.1 GULD
    guld:Income:register:individual:ngc224   -0.1 GULD
