-----BEGIN PGP SIGNED MESSAGE-----
Hash: SHA256

2018/10/14 * transfer
    ; timestamp: 1539547818
    cmejia:Assets   -8 GULD
    cmejia:Expenses   8 GULD
    jean-cabezas:Assets   8 GULD
    jean-cabezas:Income   -8 GULD
-----BEGIN PGP SIGNATURE-----
Version: GnuPG v2

iQEcBAEBCAAGBQJbw6LEAAoJEHdpxfKsj7VFXV0IALzeqVhpsgMrJHjTgri3uMET
WDCl+XUM/+1Cs6XdpEcfgHo5UkupC8+CzTLWebXBNR3VMLa/5KjXfTtUN8EOVZY8
7cZqreJFMDLNq3Z4tPq0Z59Ty+PF5htnzjPNiIdo2ZprwpsZeiFyA/yOIzzjaOq0
2wfZ7RDifE1/9Fe1YMOfjrHC14nvpSUSjERKCz2xk0IR4Q/gAjJs3sIf56CLk3pn
z7isrA2lbEZO7FOkpVdpuiBznVD67fLhNxpNGtDuQGtkNGM3KJbpXJ4Zb+IwQKRb
YWcxBVE/1ajtsvNSzLehhzTUfPFj96FnkAOc2iyio+3WlKf9dQnP/2odkOzoTnA=
=3ScM
-----END PGP SIGNATURE-----